<?xml version="1.0" encoding="iso-8859-1"?>
<!-- Generator: Adobe Illustrator 19.0.0, SVG Export Plug-In . SVG Version: 6.00 Build 0)  -->
<svg xmlns="http://www.w3.org/2000/svg" xmlns:xlink="http://www.w3.org/1999/xlink" version="1.1" id="Capa_1" x="0px" y="0px" viewBox="0 0 512 512" style="enable-background:new 0 0 512 512;" xml:space="preserve" width="512px" height="512px">
<g>
	<g>
		<g>
			<path d="M512,281.6c0-11.123-7.135-20.608-17.067-24.132V95.25l16.629-49.887c0.87-2.603,0.427-5.461-1.178-7.68     c-1.604-2.236-4.173-3.55-6.921-3.55h-8.532v-25.6c0-4.71-3.823-8.533-8.533-8.533h-34.133c-4.71,0-8.533,3.823-8.533,8.533v25.6     h-34.133v-25.6c0-4.71-3.823-8.533-8.533-8.533h-34.133c-4.71,0-8.533,3.823-8.533,8.533v25.6h-34.133v-25.6     c0-4.71-3.823-8.533-8.533-8.533h-34.133c-4.71,0-8.533,3.823-8.533,8.533v25.6h-34.133v-25.6c0-4.71-3.823-8.533-8.533-8.533     h-34.133c-4.71,0-8.533,3.823-8.533,8.533v25.6h-34.133v-25.6c0-4.71-3.823-8.533-8.533-8.533h-34.133     c-4.71,0-8.533,3.823-8.533,8.533v25.6H68.265v-25.6c0-4.71-3.823-8.533-8.533-8.533H25.598c-4.71,0-8.533,3.823-8.533,8.533     v25.6H8.531c-2.739,0-5.316,1.314-6.921,3.55c-1.604,2.219-2.039,5.077-1.169,7.68l16.624,49.871v101.032     c0,0.011,0.002,0.022,0.002,0.034v61.168C7.135,260.992,0,270.477,0,281.6s7.135,20.608,17.067,24.132v197.735     c0,4.71,3.823,8.533,8.533,8.533h153.6c4.71,0,8.533-3.823,8.533-8.533V305.732c9.931-3.523,17.067-13.009,17.067-24.132     c0-10.486-6.342-19.516-15.389-23.469c6.842-30.86,34.237-53.316,66.553-53.331h0.068c32.317,0.016,59.712,22.472,66.554,53.333     c-9.045,3.953-15.386,12.983-15.386,23.467c0,11.123,7.135,20.608,17.067,24.132v197.735c0,4.71,3.823,8.533,8.533,8.533h153.6     c4.71,0,8.533-3.823,8.533-8.533V305.732C504.865,302.209,512,292.723,512,281.6z M255.998,187.733     c-0.013,0-0.025,0.001-0.037,0.001H34.133V102.4h443.732v85.333h-221.83C256.023,187.734,256.011,187.733,255.998,187.733z      M110.932,51.2h34.133h51.2h34.133h51.2h34.133h51.2h34.133h51.2h34.133h5.23l-11.375,34.133H31.75L20.375,51.2h5.223h34.133     H110.932z M460.798,17.067h17.067v17.067h-17.067V17.067z M375.465,17.067h17.067v17.067h-17.067V17.067z M290.132,17.067h17.067     v17.067h-17.067V17.067z M204.798,17.067h17.067v17.067h-17.067V17.067z M119.465,17.067h17.067v17.067h-17.067V17.067z      M34.132,17.067h17.067v17.067H34.132V17.067z M34.133,494.934V307.2h136.533v187.733H34.133z M179.2,290.134H25.6     c-4.702,0-8.533-3.831-8.533-8.533c0-4.702,3.831-8.533,8.533-8.533h153.199c0.245,0.023,0.495,0.044,0.681,0.05     c0.223,0.015,0.446,0.013,0.67,0.006c4.257,0.475,7.584,4.096,7.584,8.477C187.733,286.302,183.902,290.134,179.2,290.134z      M172.418,256H34.133v-51.2h170.624C188.458,217.035,176.652,235.015,172.418,256z M307.239,204.8h170.628V256H339.575     C335.333,235.019,323.536,217.035,307.239,204.8z M341.333,494.934V307.2h136.533v187.733H341.333z M486.4,290.134H332.8     c-4.702,0-8.533-3.831-8.533-8.533c0-4.447,3.429-8.111,7.779-8.495c0.086,0.003,0.171,0.012,0.258,0.012     c0.239,0,0.542-0.022,0.854-0.05H486.4c4.702,0,8.533,3.831,8.533,8.533C494.933,286.302,491.102,290.134,486.4,290.134z" fill="#e63435"/>
			<path d="M170.665,119.467h-102.4c-4.71,0-8.533,3.823-8.533,8.533v34.133c0,4.71,3.823,8.533,8.533,8.533h102.4     c4.71,0,8.533-3.823,8.533-8.533V128C179.198,123.29,175.375,119.467,170.665,119.467z M162.132,153.6H76.798v-17.067h85.333     V153.6z" fill="#e63435"/>
			<path d="M443.732,119.467h-102.4c-4.71,0-8.533,3.823-8.533,8.533v34.133c0,4.71,3.823,8.533,8.533,8.533h102.4     c4.71,0,8.533-3.823,8.533-8.533V128C452.265,123.29,448.442,119.467,443.732,119.467z M435.198,153.6h-85.333v-17.067h85.333     V153.6z" fill="#e63435"/>
			<path d="M307.198,119.467h-102.4c-4.71,0-8.533,3.823-8.533,8.533v34.133c0,4.71,3.823,8.533,8.533,8.533h102.4     c4.71,0,8.533-3.823,8.533-8.533V128C315.732,123.29,311.909,119.467,307.198,119.467z M298.665,153.6h-85.333v-17.067h85.333     V153.6z" fill="#e63435"/>
			<path d="M452.265,324.267h-85.333c-4.71,0-8.533,3.823-8.533,8.533v136.533c0,4.71,3.823,8.533,8.533,8.533h85.333     c4.71,0,8.533-3.823,8.533-8.533V332.8C460.798,328.09,456.975,324.267,452.265,324.267z M443.732,460.8h-68.267V341.334h68.267     V460.8z" fill="#e63435"/>
			<path d="M145.065,324.267H59.732c-4.71,0-8.533,3.823-8.533,8.533v136.533c0,4.71,3.823,8.533,8.533,8.533h85.333     c4.71,0,8.533-3.823,8.533-8.533V332.8C153.598,328.09,149.775,324.267,145.065,324.267z M136.532,460.8H68.265V341.334h68.267     V460.8z" fill="#e63435"/>
		</g>
	</g>
</g>
<g>
</g>
<g>
</g>
<g>
</g>
<g>
</g>
<g>
</g>
<g>
</g>
<g>
</g>
<g>
</g>
<g>
</g>
<g>
</g>
<g>
</g>
<g>
</g>
<g>
</g>
<g>
</g>
<g>
</g>
</svg>
